…
``` r
tweet_words <- campaign_tweets %>% 
  mutate(text = str_replace_all(text, links, ""))  %>%
  unnest_tokens(word, text, token = "tweets") 
```

And we can now answer questions such as “what are the most commonly used
words?”:

``` r
tweet_words %>% 
  count(word) %>%
  arrange(desc(n))
## # A tibble: 6,620 x 2
##    word      n
##    <chr> <int>
##  1 the    2329
##  2 to     1410
##  3 and    1239
##  4 in     1185
##  5 i      1143
##  6 a      1112
##  7 you     999
##  8 of      982
##  9 is      942
## 10 on      874
## # … with 6,610 more rows
```

It is not surprising that these are the top words. The top words are not
informative. The *tidytext* package has a database of these commonly
used words, referred to as *stop words*, in text mining:

``` r
stop_words
## # A tibble: 1,149 x 2
##    word        lexicon
##    <chr>       <chr>  
##  1 a           SMART  
##  2 a's         SMART  
##  3 able        SMART  
##  4 about       SMART  
##  5 above       SMART  
##  6 according   SMART  
##  7 accordingly SMART  
##  8 across      SMART  
##  9 actually    SMART  
## 10 after       SMART  
## # … with 1,139 more rows
```
…
``` r
android_iphone_or <- tweet_words %>%
  count(word, source) %>%
  spread(source, n, fill = 0) %>%
  mutate(or = (Android + 0.5) / (sum(Android) - Android + 0.5) / 
           ( (iPhone + 0.5) / (sum(iPhone) - iPhone + 0.5)))
```

Here are the highest odds ratios for Android

``` r
android_iphone_or %>% arrange(desc(or))
## # A tibble: 5,914 x 4
##    word      Android iPhone    or
##    <chr>       <dbl>  <dbl> <dbl>
##  1 poor           13      0  23.1
##  2 poorly         12      0  21.4
##  3 turnberry      11      0  19.7
##  4 @cbsnews       10      0  18.0
##  5 angry          10      0  18.0
##  6 bosses         10      0  18.0
##  7 write          10      0  18.0
##  8 brexit          9      0  16.3
##  9 defend          9      0  16.3
## 10 funny           9      0  16.3
## # … with 5,904 more rows
```

and the top for iPhone:

``` r
android_iphone_or %>% arrange(or)
## # A tibble: 5,914 x 4
##    word                   Android iPhone      or
##    <chr>                    <dbl>  <dbl>   <dbl>
##  1 #makeamericagreatagain       0    294 0.00142
##  2 #americafirst                0     71 0.00595
##  3 #draintheswamp               0     63 0.00670
##  4 #trump2016                   3    411 0.00706
##  5 #votetrump                   0     56 0.00753
##  6 join                         1    157 0.00805
##  7 #imwithyou                   0     51 0.00827
##  8 #crookedhillary              0     30 0.0140 
##  9 #fitn                        0     30 0.0140 
## 10 #gopdebate                   0     30 0.0140 
## # … with 5,904 more rows
```

Given that several of these words are overall low frequency words, we
can impose a filter based on the total frequency like this:

``` r
android_iphone_or %>% filter(Android+iPhone > 100) %>%
  arrange(desc(or))
## # A tibble: 30 x 4
##    word        Android iPhone    or
##    <chr>         <dbl>  <dbl> <dbl>
##  1 @cnn             90     17  4.44
##  2 bad             104     26  3.39
##  3 crooked         156     49  2.72
##  4 interviewed      76     25  2.57
##  5 media            76     25  2.57
##  6 ted              84     28  2.54
##  7 win              74     28  2.24
##  8 hillary         289    116  2.14
##  9 debate           79     32  2.10
## 10 cruz            113     46  2.09
## # … with 20 more rows
android_iphone_or %>% filter(Android+iPhone > 100) %>%
  arrange(or)
## # A tibble: 30 x 4
##    word                   Android iPhone      or
##    <chr>                    <dbl>  <dbl>   <dbl>
##  1 #makeamericagreatagain       0    294 0.00142
##  2 #trump2016                   3    411 0.00706
##  3 join                         1    157 0.00805
##  4 tomorrow                    24     99 0.209  
##  5 vote                        46     67 0.588  
##  6 america                    114    140 0.695  
##  7 tonight                     70     84 0.712  
##  8 iowa                        61     65 0.802  
##  9 trump                      104     91 0.976  
## 10 poll                       116    101 0.981  
## # … with 20 more rows
```
…
